Modern R Data Science
…
recipes

library(recipes)

train %>% 
  recipe(arr_delay~.) %>% 
  step_rm(dep_delay, year, time_hour) %>% 
  step_center(all_numeric()) %>% 
  step_scale(all_numeric()) %>% 
  step_nzv(all_nominal()) %>% 
  prep() ->
  fe_cleaner

(train_cleaned<-bake(fe_cleaner, train))
## # A tibble: 235,743 x 16
##    month   day dep_time sched_dep_time arr_time sched_arr_time arr_delay
##    <dbl> <dbl>    <dbl>          <dbl>    <dbl>          <dbl>     <dbl>
##  1 -1.62 -1.68    -1.70          -1.77   -1.26           -1.44    0.0908
##  2 -1.62 -1.68    -1.67          -1.74   -1.22           -1.42    0.292 
##  3 -1.62 -1.68    -1.65          -1.72   -1.09           -1.38    0.582 
##  4 -1.62 -1.68    -1.65          -1.71   -0.934          -1.03   -0.556 
##  5 -1.62 -1.68    -1.63          -1.59   -1.29           -1.41   -0.712 
##  6 -1.62 -1.68    -1.63          -1.68   -1.43           -1.62    0.113 
##  7 -1.62 -1.68    -1.63          -1.59   -1.10           -1.37    0.269 
##  8 -1.62 -1.68    -1.62          -1.59   -1.49           -1.63   -0.467 
##  9 -1.62 -1.68    -1.62          -1.59   -1.24           -1.39   -0.333 
## 10 -1.62 -1.68    -1.62          -1.59   -1.40           -1.59    0.0239
## # ... with 235,733 more rows, and 9 more variables: carrier <fct>,
## #   flight <dbl>, tailnum <fct>, origin <fct>, dest <fct>, air_time <dbl>,
## #   distance <dbl>, hour <dbl>, minute <dbl>
…
